{
  "PlayerCount": "33",
  "PhotoPath":  "C:\\Users\\Gim\\Desktop\\photo_taken",
  "FilterColorPath":  "C:\\Users\\Gim\\Desktop\\filter_color",
  "FilterTextPath":  "C:\\Users\\Gim\\Desktop\\filter_text",
  "FilterNumPath":  "C:\\Users\\Gim\\Desktop\\filter_num"
}
